term4/AVS/lab_test/simulation/qsim/lab_test.msim.vcd
$comment
	File created using the following command:
		vcd file lab_test.msim.vcd -direction
$end
$date
	Thu Apr 18 19:40:06 2019
$end
$version
	ModelSim Version 10.5b
$end
$timescale
	1ps
$end

$scope module lab_test_vlg_vec_tst $end
$var reg 5 ! A [4:0] $end
$var reg 5 " B [4:0] $end
$var reg 1 # Sign $end
$var wire 1 $ C $end
$var wire 1 % Q [4] $end
$var wire 1 & Q [3] $end
$var wire 1 ' Q [2] $end
$var wire 1 ( Q [1] $end
$var wire 1 ) Q [0] $end

$scope module i1 $end
$var wire 1 * gnd $end
$var wire 1 + vcc $end
$var wire 1 , unknown $end
$var tri1 1 - devclrn $end
$var tri1 1 . devpor $end
$var tri1 1 / devoe $end
$var wire 1 0 Sign~combout $end
$var wire 1 1 inst|inst10~combout $end
$var wire 1 2 inst18|inst3|inst7~0_combout $end
$var wire 1 3 inst14|inst3~0_combout $end
$var wire 1 4 inst18|inst3|inst6~0_combout $end
$var wire 1 5 inst|inst9~combout $end
$var wire 1 6 inst15|inst3~0_combout $end
$var wire 1 7 inst18|inst|inst6~combout $end
$var wire 1 8 inst12|inst3~0_combout $end
$var wire 1 9 inst|inst11~combout $end
$var wire 1 : inst18|inst1|inst6~combout $end
$var wire 1 ; inst13|inst3~0_combout $end
$var wire 1 < inst2~combout $end
$var wire 1 = inst3~combout $end
$var wire 1 > inst13|inst1~combout $end
$var wire 1 ? inst12|inst1~combout $end
$var wire 1 @ inst15|inst1~combout $end
$var wire 1 A inst14|inst1~combout $end
$var wire 1 B inst11|inst7~combout $end
$var wire 1 C B~combout [4] $end
$var wire 1 D B~combout [3] $end
$var wire 1 E B~combout [2] $end
$var wire 1 F B~combout [1] $end
$var wire 1 G B~combout [0] $end
$var wire 1 H A~combout [4] $end
$var wire 1 I A~combout [3] $end
$var wire 1 J A~combout [2] $end
$var wire 1 K A~combout [1] $end
$var wire 1 L A~combout [0] $end
$upscope $end
$upscope $end
$enddefinitions $end
#0
$dumpvars
b10000 !
b10000 "
0#
1$
0)
0(
0'
0&
0%
0*
1+
x,
1-
1.
1/
00
01
02
03
14
05
06
17
08
19
0:
1;
0<
1=
0>
1?
1@
0A
0B
0G
0F
0E
0D
1C
0L
0K
0J
0I
1H
$end
#310
1#
10
09
07
15
04
11
1>
0;
1<
1:
0>
1;
1%
0=
0%
0$
#620
b10001 "
0#
1G
00
1B
17
14
0<
0:
19
05
01
1=
1)
1$
#930
1#
10
09
15
12
11
1>
0;
0@
1A
0?
0=
1%
1(
1&
1'
0$
#1240
b10011 "
b10010 "
0#
0G
1F
00
0B
19
05
01
0>
1;
1@
1?
0)
1=
0%
0&
0'
1$
#1550
1#
10
09
15
11
1>
0;
0@
0?
0=
1%
1&
1'
0$
#1860
b10011 "
0#
1G
00
1B
19
05
01
0>
1;
1@
1?
1)
1=
0%
0&
0'
1$
#2170
1#
10
09
15
02
11
1>
0;
0@
0A
0?
0=
1%
0(
1&
1'
0$
#2480
b10111 "
b10101 "
b10100 "
0#
0G
0F
1E
00
0B
19
01
0>
1;
1?
0)
1=
0%
0&
1$
#2790
1#
10
09
05
04
11
1>
0;
0?
0=
1%
1&
0$
#3100
b10101 "
0#
1G
00
1B
14
19
15
01
0>
1;
1?
1)
1=
0%
0&
1$
#3410
1#
10
09
05
12
11
1>
0;
1@
1A
0?
0=
1%
1(
1&
0'
0$
#3720
b10111 "
b10110 "
0#
0G
1F
00
0B
19
15
01
0>
1;
0@
1?
0)
1=
0%
0&
1'
1$
#4030
1#
10
09
05
11
1>
0;
1@
0?
0=
1%
1&
0'
0$
#4340
b10111 "
0#
1G
00
1B
19
15
01
0>
1;
0@
1?
1)
1=
0%
0&
1'
1$
#4650
1#
10
09
05
02
11
1>
0;
1@
0A
0?
0=
1%
0(
1&
0'
0$
#4960
b11111 "
b11011 "
b11001 "
b11000 "
0#
0G
0F
0E
1D
00
0B
19
0>
1;
0)
1=
0%
1$
#5270
1#
10
09
07
15
04
01
1>
0;
0=
1%
0$
#5580
b11001 "
0#
1G
00
1B
17
14
1:
19
05
11
0:
1)
0>
1;
1=
0%
1$
#5890
1#
10
09
15
12
01
1>
0;
0@
1A
1?
0=
1%
1(
0&
1'
0$
#6200
b11011 "
b11010 "
0#
0G
1F
00
0B
19
05
11
0>
1;
1@
0?
0)
1=
0%
1&
0'
1$
#6510
1#
10
09
15
01
1>
0;
0@
1?
0=
1%
0&
1'
0$
#6820
b11011 "
0#
1G
00
1B
19
05
11
0>
1;
1@
0?
1)
1=
0%
1&
0'
1$
#7130
1#
10
09
15
02
01
1>
0;
0@
0A
1?
0=
1%
0(
0&
1'
0$
#7440
b11111 "
b11101 "
b11100 "
0#
0G
0F
1E
00
0B
19
11
0>
1;
0?
0)
1=
0%
1&
1$
#7750
1#
10
09
05
04
01
1>
0;
1?
0=
1%
0&
0$
#8060
b11101 "
0#
1G
00
1B
14
19
15
11
0>
1;
0?
1)
1=
0%
1&
1$
#8370
1#
10
09
05
12
01
1>
0;
1@
1A
1?
0=
1%
1(
0&
0'
0$
#8680
b11111 "
b11110 "
0#
0G
1F
00
0B
19
15
11
0>
1;
0@
0?
0)
1=
0%
1&
1'
1$
#8990
1#
10
09
05
01
1>
0;
1@
1?
0=
1%
0&
0'
0$
#9300
b11111 "
0#
1G
00
1B
19
15
11
0>
1;
0@
0?
1)
1=
0%
1&
1'
1$
#9610
1#
10
09
05
02
01
1>
0;
1@
0A
1?
0=
1%
0(
0&
0'
0$
#9920
b1111 "
b111 "
b11 "
b1 "
b0 "
0#
0G
0F
0E
0D
0C
00
0B
0)
#10000
b10001 !
1L
1B
1)
#10230
1#
10
19
07
15
04
11
0>
1;
1:
1=
1>
0;
0%
0=
1$
1%
0$
#10540
b1 "
0#
1G
00
0B
1A
17
14
0:
09
05
01
0)
1(
#10850
1#
10
19
15
12
11
0>
1;
0@
0A
13
0?
1=
1@
16
0%
0(
1&
1'
1?
18
1$
0'
1>
0=
0&
1%
0$
#11160
b11 "
b10 "
0#
0G
1F
00
1B
1A
03
09
05
01
06
0>
0?
08
1)
1(
1?
1>
1=
0;
0%
1&
0=
1%
1$
0&
0$
#11470
1#
10
19
15
11
0>
1;
0@
0?
1=
0%
1&
1'
1$
#11780
b11 "
0#
1G
00
0B
0A
13
09
05
01
1>
0;
1?
0)
0(
0=
1%
0&
0$
#12090
1#
10
19
15
02
11
0>
1;
1@
16
1A
03
0?
1=
1?
18
0@
06
0%
1(
1&
0'
1>
0=
0?
08
1$
1'
0&
0>
1=
1%
0$
1&
0%
1$
#12400
b111 "
b101 "
b100 "
0#
0G
0F
1E
00
1B
0A
09
01
1>
0;
1?
1)
0(
0=
1%
0&
0$
#12710
1#
10
19
05
04
11
0>
1;
0?
1=
0%
1&
1$
#13020
b101 "
0#
1G
00
0B
1A
14
09
15
01
1>
0;
1?
0)
1(
0=
1%
0&
0$
#13330
1#
10
19
05
12
11
0>
1;
1@
0A
13
0?
1=
0@
0%
0(
1&
0'
1$
1'
#13640
b111 "
b110 "
0#
0G
1F
00
1B
1A
03
09
15
01
1>
0;
1?
1)
1(
0=
1%
0&
0$
#13950
1#
10
19
05
11
0>
1;
1@
0?
1=
0%
1&
0'
1$
#14260
b111 "
0#
1G
00
0B
0A
13
09
15
01
16
1>
0;
1?
0)
0(
0?
0=
1%
0&
0$
1&
#14570
1#
10
19
05
02
11
0>
1;
0@
06
1A
03
1?
18
0?
08
1@
1>
0%
1(
0&
1'
0>
1=
1%
0'
1&
0%
1$
#14880
b1111 "
b1011 "
b1001 "
b1000 "
0#
0G
0F
0E
1D
00
1B
0A
09
1>
0;
1)
0(
0=
1%
0$
#15190
1#
10
19
07
15
04
01
0>
1;
1=
0%
1$
#15500
b1001 "
0#
1G
00
0B
1A
17
14
1:
09
05
11
0:
0)
1(
1>
0;
0=
1%
0$
#15810
1#
10
19
15
12
01
0>
1;
0@
0A
13
1?
1=
1@
16
0%
0(
0&
1'
0?
1$
0'
1&
#16120
b1011 "
b1010 "
0#
0G
1F
00
1B
1A
03
09
05
11
06
1>
0;
1?
18
1)
1(
0?
08
0>
1;
1%
0&
1>
0;
0%
1&
0=
1%
0$
#16430
1#
10
19
15
01
0>
1;
0@
1?
1=
0%
0&
1'
1$
#16740
b1011 "
0#
1G
00
0B
0A
13
09
05
11
1>
0;
0?
0)
0(
0=
1%
1&
0$
#17050
1#
10
19
15
02
01
0>
1;
1@
16
1A
03
1?
1=
0?
0@
06
0%
1(
0&
0'
1?
1$
1'
1&
0&
#17360
b1111 "
b1101 "
b1100 "
0#
0G
0F
1E
00
1B
0A
09
11
1>
0;
0?
1)
0(
0=
1%
1&
0$
#17670
1#
10
19
05
04
01
0>
1;
1?
1=
0%
0&
1$
#17980
b1101 "
0#
1G
00
0B
1A
14
09
15
11
1>
0;
0?
0)
1(
0=
1%
1&
0$
#18290
1#
10
19
05
12
01
0>
1;
1@
0A
13
1?
1=
0@
0%
0(
0&
0'
1$
1'
#18600
b1111 "
b1110 "
0#
0G
1F
00
1B
1A
03
09
15
11
1>
0;
0?
1)
1(
0=
1%
1&
0$
#18910
1#
10
19
05
01
0>
1;
1@
1?
1=
0%
0&
0'
1$
#19220
b1111 "
0#
1G
00
0B
0A
13
09
15
11
16
1>
0;
0?
0)
0(
1?
18
0=
1%
1&
0>
1=
1;
0$
0&
0=
0%
1$
0$
#19530
1#
10
19
05
02
01
1>
0@
06
1A
03
0?
08
1?
1@
0>
1=
1%
1(
1&
1'
0%
1$
0'
0&
#19840
b11111 "
b10111 "
b10011 "
b10001 "
b10000 "
0#
0G
0F
0E
0D
1C
00
1B
0A
1)
0(
#20000
b10011 !
b10010 !
0L
1K
0B
1A
0)
1(
#20150
1#
10
09
07
15
04
11
1>
0;
1<
1:
0>
1;
1%
0=
0%
0$
#20460
b10001 "
0#
1G
00
1B
17
14
0<
0:
19
05
01
1=
1)
1$
#20770
1#
10
09
15
12
11
1>
0;
0@
0A
13
0?
0=
1@
16
1%
0(
1&
1'
1?
18
0$
0'
0>
1=
1;
0&
0=
0%
1$
0$
#21080
b10011 "
b10010 "
0#
0G
1F
00
0B
19
05
01
1>
0@
06
0?
08
0)
1?
0>
1=
1%
1&
1'
0%
1$
0&
#21390
1#
10
09
15
11
1>
0;
1@
16
0?
0=
1?
18
1%
1&
0'
0>
1=
1;
0$
0&
0=
0%
1$
0$
#21700
b10011 "
0#
1G
00
1B
19
05
01
1>
0@
06
0?
08
1)
1?
0>
1=
1%
1&
1'
0%
1$
0&
#22010
1#
10
09
15
02
11
1>
0;
1@
16
1A
03
0?
0=
1?
18
0@
06
1%
1(
1&
0'
0>
1=
1;
0?
08
0$
1'
0&
1>
0;
0%
1$
1&
0=
1%
0$
#22320
b10111 "
b10101 "
b10100 "
0#
0G
0F
1E
00
0B
19
01
0>
1;
1?
0)
1=
0%
0&
1$
#22630
1#
10
09
05
04
11
1>
0;
0?
0=
1%
1&
0$
#22940
b10101 "
0#
1G
00
1B
14
19
15
01
0>
1;
1?
1)
1=
0%
0&
1$
#23250
1#
10
09
05
12
11
1>
0;
1@
0A
13
0?
0=
0@
1%
0(
1&
0'
0$
1'
#23560
b10111 "
b10110 "
0#
0G
1F
00
0B
19
15
01
0>
1;
1@
16
1?
0)
1=
0?
0%
0&
0'
1$
1&
#23870
1#
10
09
05
11
1>
0;
0@
06
1?
18
0?
08
0>
1;
1%
0&
1'
1>
0;
0%
1&
0=
1%
0$
#24180
b10111 "
0#
1G
00
1B
19
15
01
0>
1;
1@
16
1?
1)
1=
0?
0%
0&
0'
1$
1&
#24490
1#
10
09
05
02
11
1>
0;
0@
06
1A
03
1?
18
0?
08
1@
0>
1;
1%
1(
0&
1'
1>
0;
0%
0'
1&
0=
1%
0$
#24800
b11111 "
b11011 "
b11001 "
b11000 "
0#
0G
0F
0E
1D
00
0B
19
0>
1;
0)
1=
0%
1$
#25110
1#
10
09
07
15
04
01
1>
0;
0=
1%
0$
#25420
b11001 "
0#
1G
00
1B
17
14
1:
19
05
11
0:
1)
0>
1;
1=
0%
1$
#25730
1#
10
09
15
12
01
1>
0;
0@
0A
13
1?
0=
1@
16
1%
0(
0&
1'
0?
0$
0'
1&
#26040
b11011 "
b11010 "
0#
0G
1F
00
0B
19
05
11
0>
1;
0@
06
1?
18
0)
0?
08
1>
0%
0&
1'
0>
1=
1%
1&
0%
1$
#26350
1#
10
09
15
01
1>
0;
1@
16
1?
0=
0?
1%
0&
0'
0$
1&
#26660
b11011 "
0#
1G
00
1B
19
05
11
0>
1;
0@
06
1?
18
1)
0?
08
1>
0%
0&
1'
0>
1=
1%
1&
0%
1$
#26970
1#
10
09
15
02
01
1>
0;
1@
16
1A
03
1?
0=
0?
0@
06
1%
1(
0&
0'
1?
0$
1'
1&
0&
#27280
b11111 "
b11101 "
b11100 "
0#
0G
0F
1E
00
0B
19
11
0>
1;
0?
0)
1=
0%
1&
1$
#27590
1#
10
09
05
04
01
1>
0;
1?
0=
1%
0&
0$
#27900
b11101 "
0#
1G
00
1B
14
19
15
11
0>
1;
0?
1)
1=
0%
1&
1$
#28210
1#
10
09
05
12
01
1>
0;
1@
0A
13
1?
0=
0@
1%
0(
0&
0'
0$
1'
#28520
b11111 "
b11110 "
0#
0G
1F
00
0B
19
15
11
0>
1;
1@
16
0?
0)
1=
1?
18
0%
1&
0'
1>
0=
1$
0&
1%
0$
#28830
1#
10
09
05
01
0>
0@
06
0?
08
1?
1>
1=
0;
0%
1&
1'
0=
1%
1$
0&
0$
#29140
b11111 "
0#
1G
00
1B
19
15
11
0>
1;
1@
16
0?
1)
1=
1?
18
0%
1&
0'
1>
0=
1$
0&
1%
0$
#29450
1#
10
09
05
02
01
0>
0@
06
1A
03
0?
08
1?
1@
1>
1=
0;
0%
1(
1&
1'
0=
1%
1$
0'
0&
0$
#29760
b1111 "
b111 "
b11 "
b1 "
b0 "
0#
0G
0F
0E
0D
0C
00
0B
0)
#30000
b10011 !
1L
1B
1)
#30070
1#
10
19
07
15
04
11
0>
1;
1:
1=
1>
0;
0%
0=
1$
1%
0$
#30380
b1 "
0#
1G
00
0B
0A
17
14
13
0:
09
05
01
0@
0)
0(
1'
#30690
1#
10
19
15
12
11
0>
1;
1@
16
1A
0?
1=
1?
18
0%
1(
1&
0'
1>
0=
1$
0&
1%
0$
#31000
b11 "
b10 "
0#
0G
1F
00
1B
0A
09
05
01
0>
0@
06
0?
08
1)
0(
1?
1>
1=
0;
0%
1&
1'
0=
1%
1$
0&
0$
#31310
1#
10
19
15
11
0>
1;
1@
16
0?
1=
1?
18
0%
1&
0'
1>
0=
1$
0&
1%
0$
#31620
b11 "
0#
1G
00
0B
1A
09
05
01
0>
0@
06
0?
08
0)
1(
1?
1>
1=
0;
0%
1&
1'
0=
1%
1$
0&
0$
#31930
1#
10
19
15
02
11
0>
1;
1@
16
0A
0?
1=
1?
18
0%
0(
1&
0'
1>
0=
1$
0&
1%
0$
#32240
b111 "
b101 "
b100 "
0#
0G
0F
1E
00
1B
1A
03
09
01
0@
06
0>
0?
08
1)
1(
1?
1>
1=
0;
0%
1&
1'
0=
1%
1$
0&
0$
#32550
1#
10
19
05
04
11
0>
1;
0?
1=
0%
1&
1$
#32860
b101 "
0#
1G
00
0B
0A
14
13
09
15
01
1@
16
1>
0;
1?
0)
0(
0?
0=
1%
0&
0'
0$
1&
#33170
1#
10
19
05
12
11
0>
1;
0@
06
1A
1?
18
0?
08
1>
0%
1(
0&
1'
0>
1=
1%
1&
0%
1$
#33480
b111 "
b110 "
0#
0G
1F
00
1B
0A
09
15
01
1>
0;
1@
16
1?
1)
0(
0=
0?
1%
0&
0'
0$
1&
#33790
1#
10
19
05
11
0>
1;
0@
06
1?
18
0?
08
1>
0%
0&
1'
0>
1=
1%
1&
0%
1$
#34100
b111 "
0#
1G
00
0B
1A
09
15
01
1>
0;
1@
16
1?
0)
1(
0=
0?
1%
0&
0'
0$
1&
#34410
1#
10
19
05
02
11
0>
1;
0@
06
0A
1?
18
0?
08
1>
0%
0(
0&
1'
0>
1=
1%
1&
0%
1$
#34720
b1111 "
b1011 "
b1001 "
b1000 "
0#
0G
0F
0E
1D
00
1B
1A
03
09
1@
1>
0;
1)
1(
0=
1%
0'
0$
#35030
1#
10
19
07
15
04
01
0>
1;
1=
0%
1$
#35340
b1001 "
0#
1G
00
0B
0A
17
14
13
1:
09
05
11
0:
0@
0)
0(
1>
0;
1'
0=
1%
0$
#35650
1#
10
19
15
12
01
0>
1;
1@
16
1A
1?
1=
0?
0%
1(
0&
0'
1$
1&
#35960
b1011 "
b1010 "
0#
0G
1F
00
1B
0A
09
05
11
1>
0;
0@
06
1?
18
1)
0(
0?
08
0>
1;
1%
0&
1'
1>
0;
0%
1&
0=
1%
0$
#36270
1#
10
19
15
01
0>
1;
1@
16
1?
1=
0?
0%
0&
0'
1$
1&
#36580
b1011 "
0#
1G
00
0B
1A
09
05
11
1>
0;
0@
06
1?
18
0)
1(
0?
08
0>
1;
1%
0&
1'
1>
0;
0%
1&
0=
1%
0$
#36890
1#
10
19
15
02
01
0>
1;
1@
16
0A
1?
1=
0?
0%
0(
0&
0'
1$
1&
#37200
b1111 "
b1101 "
b1100 "
0#
0G
0F
1E
00
1B
1A
03
09
11
0@
06
1>
0;
1?
18
1)
1(
0?
08
0>
1;
1%
0&
1'
1>
0;
0%
1&
0=
1%
0$
#37510
1#
10
19
05
04
01
0>
1;
1?
1=
0%
0&
1$
#37820
b1101 "
0#
1G
00
0B
0A
14
13
09
15
11
1@
16
1>
0;
0?
0)
0(
1?
18
0=
1%
1&
0'
0>
1=
1;
0$
0&
0=
0%
1$
0$
#38130
1#
10
19
05
12
01
1>
0@
06
1A
0?
08
1?
0>
1=
1%
1(
1&
1'
0%
1$
0&
#38440
b1111 "
b1110 "
0#
0G
1F
00
1B
0A
09
15
11
1>
0;
1@
16
0?
1)
0(
0=
1?
18
1%
1&
0'
0>
1=
1;
0$
0&
0=
0%
1$
0$
#38750
1#
10
19
05
01
1>
0@
06
0?
08
1?
0>
1=
1%
1&
1'
0%
1$
0&
#39060
b1111 "
0#
1G
00
0B
1A
09
15
11
1>
0;
1@
16
0?
0)
1(
0=
1?
18
1%
1&
0'
0>
1=
1;
0$
0&
0=
0%
1$
0$
#39370
1#
10
19
05
02
01
1>
0@
06
0A
0?
08
1?
0>
1=
1%
0(
1&
1'
0%
1$
0&
#39680
b11111 "
b10111 "
b10011 "
b10001 "
b10000 "
0#
0G
0F
0E
0D
1C
00
1B
1A
03
1@
1)
1(
0'
#39990
1#
10
09
07
15
04
11
1>
0;
1<
1:
0>
1;
1%
0=
0%
0$
#40000
b10111 !
b10101 !
b10100 !
0L
0K
1J
0B
0A
0@
0)
0(
1'
#40300
b10001 "
0#
1G
00
1B
17
14
0<
0:
19
05
01
1=
1)
1$
#40610
1#
10
09
15
12
11
1>
0;
1@
16
1A
0?
0=
1?
18
1%
1(
1&
0'
0>
1=
1;
0$
0&
0=
0%
1$
0$
#40920
b10011 "
b10010 "
0#
0G
1F
00
0B
19
05
01
1>
0@
06
0?
08
0)
1?
0>
1=
1%
1&
1'
0%
1$
0&
#41230
1#
10
09
15
11
1>
0;
1@
16
0?
0=
1?
18
1%
1&
0'
0>
1=
1;
0$
0&
0=
0%
1$
0$
#41540
b10011 "
0#
1G
00
1B
19
05
01
1>
0@
06
0?
08
1)
1?
0>
1=
1%
1&
1'
0%
1$
0&
#41850
1#
10
09
15
02
11
1>
0;
1@
16
0A
0?
0=
1?
18
1%
0(
1&
0'
0>
1=
1;
0$
0&
0=
0%
1$
0$
#42160
b10111 "
b10101 "
b10100 "
0#
0G
0F
1E
00
0B
19
01
1>
0?
08
0)
0>
1=
1%
1&
0%
1$
#42470
1#
10
09
05
04
11
1>
0;
1?
18
0>
1;
1%
0&
0=
0%
0$
#42780
b10101 "
0#
1G
00
1B
14
19
15
01
1>
0?
08
1)
0>
1=
1%
1&
0%
1$
#43090
1#
10
09
05
12
11
1>
0;
0@
06
1A
1?
18
0?
08
0>
1;
1%
1(
0&
1'
1>
0;
0%
1&
0=
1%
0$
#43400
b10111 "
b10110 "
0#
0G
1F
00
0B
19
15
01
0>
1;
1@
16
1?
0)
1=
0?
0%
0&
0'
1$
1&
#43710
1#
10
09
05
11
1>
0;
0@
06
1?
18
0?
08
0>
1;
1%
0&
1'
1>
0;
0%
1&
0=
1%
0$
#44020
b10111 "
0#
1G
00
1B
19
15
01
0>
1;
1@
16
1?
1)
1=
0?
0%
0&
0'
1$
1&
#44330
1#
10
09
05
02
11
1>
0;
0@
06
0A
1?
18
0?
08
0>
1;
1%
0(
0&
1'
1>
0;
0%
1&
0=
1%
0$
#44640
b11111 "
b11011 "
b11001 "
b11000 "
0#
0G
0F
0E
1D
00
0B
19
0>
1;
0)
1=
0%
1$
#44950
1#
10
09
07
15
04
01
1>
0;
0=
1%
0$
#45260
b11001 "
0#
1G
00
1B
17
14
1:
19
05
11
0:
1)
0>
1;
1=
0%
1$
#45570
1#
10
09
15
12
01
1>
0;
1@
16
1A
1?
0=
0?
1%
1(
0&
0'
0$
1&
#45880
b11011 "
b11010 "
0#
0G
1F
00
0B
19
05
11
0>
1;
0@
06
1?
18
0)
0?
08
1>
0%
0&
1'
0>
1=
1%
1&
0%
1$
#46190
1#
10
09
15
01
1>
0;
1@
16
1?
0=
0?
1%
0&
0'
0$
1&
#46500
b11011 "
0#
1G
00
1B
19
05
11
0>
1;
0@
06
1?
18
1)
0?
08
1>
0%
0&
1'
0>
1=
1%
1&
0%
1$
#46810
1#
10
09
15
02
01
1>
0;
1@
16
0A
1?
0=
0?
1%
0(
0&
0'
0$
1&
#47120
b11111 "
b11101 "
b11100 "
0#
0G
0F
1E
00
0B
19
11
0>
1;
1?
18
0)
1>
0%
0&
1%
#47430
1#
10
09
05
04
01
0>
0?
08
1>
1=
0;
0%
1&
0=
1%
1$
0$
#47740
b11101 "
0#
1G
00
1B
14
19
15
11
0>
1;
1?
18
1)
1>
0%
0&
1%
#48050
1#
10
09
05
12
01
0>
0@
06
1A
0?
08
1?
1>
1=
0;
0%
1(
1&
1'
0=
1%
1$
0&
0$
#48360
b11111 "
b11110 "
0#
0G
1F
00
0B
19
15
11
0>
1;
1@
16
0?
0)
1=
1?
18
0%
1&
0'
1>
0=
1$
0&
1%
0$
#48670
1#
10
09
05
01
0>
0@
06
0?
08
1?
1>
1=
0;
0%
1&
1'
0=
1%
1$
0&
0$
#48980
b11111 "
0#
1G
00
1B
19
15
11
0>
1;
1@
16
0?
1)
1=
1?
18
0%
1&
0'
1>
0=
1$
0&
1%
0$
#49290
1#
10
09
05
02
01
0>
0@
06
0A
0?
08
1?
1>
1=
0;
0%
0(
1&
1'
0=
1%
1$
0&
0$
#49600
b1111 "
b111 "
b11 "
b1 "
b0 "
0#
0G
0F
0E
0D
0C
00
0B
0)
#49910
1#
10
19
07
15
04
11
0>
1;
1:
1=
1>
0;
0%
0=
1$
1%
0$
#50000
b10101 !
1L
1B
1)
#50220
b1 "
0#
1G
00
0B
1A
17
14
0:
09
05
01
0)
1(
#50530
1#
10
19
15
12
11
0>
1;
1@
16
0A
13
0?
1=
1?
18
0@
0%
0(
1&
0'
1>
0=
1$
1'
0&
1%
0$
#50840
b11 "
b10 "
0#
0G
1F
00
1B
1A
03
09
05
01
06
0>
0?
08
1)
1(
1?
1>
1=
0;
0%
1&
0=
1%
1$
0&
0$
#51150
1#
10
19
15
11
0>
1;
1@
16
0?
1=
1?
18
0%
1&
0'
1>
0=
1$
0&
1%
0$
#51460
b11 "
0#
1G
00
0B
0A
13
09
05
01
0>
0?
08
0)
0(
1>
1=
0;
0%
1&
0=
1%
1$
0$
#51770
1#
10
19
15
02
11
0>
1;
0@
1A
03
1?
18
1@
1>
0%
1(
0&
1'
1%
0'
#52080
b111 "
b101 "
b100 "
0#
0G
0F
1E
00
1B
0A
09
01
0>
0?
08
1)
0(
1>
1=
0;
0%
1&
0=
1%
1$
0$
#52390
1#
10
19
05
04
11
0>
1;
1?
18
1>
0%
0&
1%
#52700
b101 "
0#
1G
00
0B
1A
14
09
15
01
0>
0?
08
0)
1(
1>
1=
0;
0%
1&
0=
1%
1$
0$
#53010
1#
10
19
05
12
11
0>
1;
0@
06
0A
13
1?
18
0?
08
1@
16
1>
0%
0(
0&
1'
0>
1=
1?
18
1%
0'
1&
1>
0=
0%
1$
0&
1%
0$
#53320
b111 "
b110 "
0#
0G
1F
00
1B
1A
03
09
15
01
0>
0?
08
1)
1(
1>
1=
0;
0%
1&
0=
1%
1$
0$
#53630
1#
10
19
05
11
0>
1;
0@
06
1?
18
0?
08
1>
0%
0&
1'
0>
1=
1%
1&
0%
1$
#53940
b111 "
0#
1G
00
0B
0A
13
09
15
01
16
1>
0;
1?
0)
0(
0?
0=
1%
0&
0$
1&
#54250
1#
10
19
05
02
11
0>
1;
1@
1A
03
1?
18
0@
06
1>
0%
1(
0&
0'
0?
08
1%
1'
0>
1=
1&
0%
1$
#54560
b1111 "
b1011 "
b1001 "
b1000 "
0#
0G
0F
0E
1D
00
1B
0A
09
1>
0;
1)
0(
0=
1%
0$
#54870
1#
10
19
07
15
04
01
0>
1;
1=
0%
1$
#55180
b1001 "
0#
1G
00
0B
1A
17
14
1:
09
05
11
0:
0)
1(
1>
0;
0=
1%
0$
#55490
1#
10
19
15
12
01
0>
1;
1@
16
0A
13
1?
1=
0?
0@
0%
0(
0&
0'
1$
1'
1&
#55800
b1011 "
b1010 "
0#
0G
1F
00
1B
1A
03
09
05
11
06
1>
0;
1?
18
1)
1(
0?
08
0>
1;
1%
0&
1>
0;
0%
1&
0=
1%
0$
#56110
1#
10
19
15
01
0>
1;
1@
16
1?
1=
0?
0%
0&
0'
1$
1&
#56420
b1011 "
0#
1G
00
0B
0A
13
09
05
11
1>
0;
1?
18
0)
0(
0>
1;
1%
0&
0=
0%
0$
#56730
1#
10
19
15
02
01
1>
0@
1A
03
0?
08
1@
0>
1=
1%
1(
1&
1'
0%
1$
0'
#57040
b1111 "
b1101 "
b1100 "
0#
0G
0F
1E
00
1B
0A
09
11
1>
0;
1?
18
1)
0(
0>
1;
1%
0&
0=
0%
0$
#57350
1#
10
19
05
04
01
1>
0?
08
0>
1=
1%
1&
0%
1$
#57660
b1101 "
0#
1G
00
0B
1A
14
09
15
11
1>
0;
1?
18
0)
1(
0>
1;
1%
0&
0=
0%
0$
#57970
1#
10
19
05
12
01
1>
0@
06
0A
13
0?
08
1?
1@
16
0>
1=
1%
0(
1&
1'
0?
0%
1$
0'
0&
1&
#58280
b1111 "
b1110 "
0#
0G
1F
00
1B
1A
03
09
15
11
1>
0;
1?
18
1)
1(
0>
1;
1%
0&
0=
0%
0$
#58590
1#
10
19
05
01
1>
0@
06
0?
08
1?
0>
1=
1%
1&
1'
0%
1$
0&
#58900
b1111 "
0#
1G
00
0B
0A
13
09
15
11
16
1>
0;
0?
0)
0(
1?
18
0=
1%
1&
0>
1=
1;
0$
0&
0=
0%
1$
0$
#59210
1#
10
19
05
02
01
1>
1@
1A
03
0?
08
0@
06
0>
1=
1%
1(
1&
0'
1?
0%
1$
1'
0&
#59520
b11111 "
b10111 "
b10011 "
b10001 "
b10000 "
0#
0G
0F
0E
0D
1C
00
1B
0A
1)
0(
#59830
1#
10
09
07
15
04
11
1>
0;
1<
1:
0>
1;
1%
0=
0%
0$
#60000
b10111 !
b10110 !
0L
1K
0B
1A
0)
1(
#60140
b10001 "
0#
1G
00
1B
17
14
0<
0:
19
05
01
1=
1)
1$
#60450
1#
10
09
15
12
11
1>
0;
1@
16
0A
13
0?
0=
1?
18
0@
1%
0(
1&
0'
0>
1=
1;
0$
1'
0&
0=
0%
1$
0$
#60760
b10011 "
b10010 "
0#
0G
1F
00
0B
19
05
01
1>
1@
0?
08
0)
0>
1=
1%
1&
0'
0%
1$
#61070
1#
10
09
15
11
1>
0;
0@
1?
18
0>
1;
1%
0&
1'
0=
0%
0$
#61380
b10011 "
0#
1G
00
1B
19
05
01
1>
1@
0?
08
1)
0>
1=
1%
1&
0'
0%
1$
#61690
1#
10
09
15
02
11
1>
0;
0@
1A
03
1?
18
1@
0>
1;
1%
1(
0&
1'
0=
0%
0'
0$
#62000
b10111 "
b10101 "
b10100 "
0#
0G
0F
1E
00
0B
19
01
1>
0?
08
0)
0>
1=
1%
1&
0%
1$
#62310
1#
10
09
05
04
11
1>
0;
1?
18
0>
1;
1%
0&
0=
0%
0$
#62620
b10101 "
0#
1G
00
1B
14
19
15
01
1>
0?
08
1)
0>
1=
1%
1&
0%
1$
#62930
1#
10
09
05
12
11
1>
0;
0@
06
0A
13
1?
18
0?
08
1@
16
0>
1;
1%
0(
0&
1'
1>
0;
1?
18
0%
0'
1&
0>
1;
1%
0&
0=
0%
0$
#63240
b10111 "
b10110 "
0#
0G
1F
00
0B
19
15
01
1>
0@
0?
08
0)
0>
1=
1%
1&
1'
0%
1$
#63550
1#
10
09
05
11
1>
0;
1@
1?
18
0>
1;
1%
0&
0'
0=
0%
0$
#63860
b10111 "
0#
1G
00
1B
19
15
01
1>
0@
0?
08
1)
0>
1=
1%
1&
1'
0%
1$
#64170
1#
10
09
05
02
11
1>
0;
1@
1A
03
1?
18
0@
06
0>
1;
1%
1(
0&
0'
0?
08
0=
0%
1'
1>
1=
0;
0$
1&
0=
1%
1$
0$
#64480
b11111 "
b11011 "
b11001 "
b11000 "
0#
0G
0F
0E
1D
00
0B
19
0>
1;
0)
1=
0%
1$
#64790
1#
10
09
07
15
04
01
1>
0;
0=
1%
0$
#65100
b11001 "
0#
1G
00
1B
17
14
1:
19
05
11
0:
1)
0>
1;
1=
0%
1$
